{
    "variable": [
        {
            "id": "baseUrl",
            "key": "baseUrl",
            "type": "string",
            "name": "string",
            "value": "http:\/\/localhost:9999"
        }
    ],
    "info": {
        "name": "Laravel 10 Notification",
        "_postman_id": "fadb344d-6626-44e0-a98f-090e748e72a5",
        "description": "This is a Laravel v10.x application to control notifications using a Dockerized environment.",
        "schema": "https:\/\/schema.getpostman.com\/json\/collection\/v2.1.0\/collection.json"
    },
    "item": [
        {
            "name": "Endpoints",
            "description": "",
            "item": [
                {
                    "name": "GET api\/user",
                    "request": {
                        "url": {
                            "host": "{{baseUrl}}",
                            "path": "api\/user",
                            "query": [],
                            "raw": "{{baseUrl}}\/api\/user"
                        },
                        "method": "GET",
                        "header": [
                            {
                                "key": "Content-Type",
                                "value": "application\/json"
                            },
                            {
                                "key": "Accept",
                                "value": "application\/json"
                            }
                        ],
                        "body": null,
                        "description": "",
                        "auth": {
                            "type": "noauth"
                        }
                    },
                    "response": [
                        {
                            "header": [
                                {
                                    "key": "cache-control",
                                    "value": "no-cache, private"
                                },
                                {
                                    "key": "content-type",
                                    "value": "application\/json"
                                },
                                {
                                    "key": "access-control-allow-origin",
                                    "value": "*"
                                }
                            ],
                            "code": 401,
                            "body": "{\"message\":\"Unauthenticated.\"}",
                            "name": ""
                        }
                    ]
                },
                {
                    "name": "POST api\/notification",
                    "request": {
                        "url": {
                            "host": "{{baseUrl}}",
                            "path": "api\/notification",
                            "query": [],
                            "raw": "{{baseUrl}}\/api\/notification"
                        },
                        "method": "POST",
                        "header": [
                            {
                                "key": "Content-Type",
                                "value": "application\/json"
                            },
                            {
                                "key": "Accept",
                                "value": "application\/json"
                            }
                        ],
                        "body": {
                            "mode": "raw",
                            "raw": "{\"recipient_id\":1,\"content\":\"qitibnvijatdnqxcouwbfktvimrrfrxlzaavmp\",\"category\":\"social\"}"
                        },
                        "description": "",
                        "auth": {
                            "type": "noauth"
                        }
                    },
                    "response": []
                },
                {
                    "name": "PATCH api\/notification\/{id}\/read",
                    "request": {
                        "url": {
                            "host": "{{baseUrl}}",
                            "path": "api\/notification\/:id\/read",
                            "query": [],
                            "raw": "{{baseUrl}}\/api\/notification\/:id\/read",
                            "variable": [
                                {
                                    "id": "id",
                                    "key": "id",
                                    "value": "1",
                                    "description": "The ID of the notification."
                                }
                            ]
                        },
                        "method": "PATCH",
                        "header": [
                            {
                                "key": "Content-Type",
                                "value": "application\/json"
                            },
                            {
                                "key": "Accept",
                                "value": "application\/json"
                            }
                        ],
                        "body": null,
                        "description": "",
                        "auth": {
                            "type": "noauth"
                        }
                    },
                    "response": []
                },
                {
                    "name": "PATCH api\/notification\/{id}\/unread",
                    "request": {
                        "url": {
                            "host": "{{baseUrl}}",
                            "path": "api\/notification\/:id\/unread",
                            "query": [],
                            "raw": "{{baseUrl}}\/api\/notification\/:id\/unread",
                            "variable": [
                                {
                                    "id": "id",
                                    "key": "id",
                                    "value": "1",
                                    "description": "The ID of the notification."
                                }
                            ]
                        },
                        "method": "PATCH",
                        "header": [
                            {
                                "key": "Content-Type",
                                "value": "application\/json"
                            },
                            {
                                "key": "Accept",
                                "value": "application\/json"
                            }
                        ],
                        "body": null,
                        "description": "",
                        "auth": {
                            "type": "noauth"
                        }
                    },
                    "response": []
                }
            ]
        },
        {
            "name": "Notifications",
            "description": "\nEndpoints for managing notifications",
            "item": [
                {
                    "name": "Get all notifications",
                    "request": {
                        "url": {
                            "host": "{{baseUrl}}",
                            "path": "api\/notification",
                            "query": [],
                            "raw": "{{baseUrl}}\/api\/notification"
                        },
                        "method": "GET",
                        "header": [
                            {
                                "key": "Content-Type",
                                "value": "application\/json"
                            },
                            {
                                "key": "Accept",
                                "value": "application\/json"
                            }
                        ],
                        "body": {
                            "mode": "raw",
                            "raw": "{\"page\":14,\"page_size\":1}"
                        },
                        "description": "This endpoint is used to return a paginated list of notifications from the database.",
                        "auth": {
                            "type": "noauth"
                        }
                    },
                    "response": [
                        {
                            "header": [
                                {
                                    "key": "cache-control",
                                    "value": "no-cache, private"
                                },
                                {
                                    "key": "content-type",
                                    "value": "application\/json"
                                },
                                {
                                    "key": "x-ratelimit-limit",
                                    "value": "60"
                                },
                                {
                                    "key": "x-ratelimit-remaining",
                                    "value": "55"
                                },
                                {
                                    "key": "access-control-allow-origin",
                                    "value": "*"
                                }
                            ],
                            "code": 200,
                            "body": "{\"data\":[{\"id\":1,\"content\":\"New test notification 73\",\"category\":\"social\",\"read_at\":\"2023-08-13 15:22:47\",\"canceled_at\":\"2023-08-13 15:18:04\",\"created_at\":\"2023-08-13 17:09:53\",\"updated_at\":\"2023-08-13 15:22:47\"},{\"id\":2,\"content\":\"New test notification 418\",\"category\":\"social\",\"read_at\":null,\"canceled_at\":\"2023-08-13 18:02:33\",\"created_at\":\"2023-08-13 17:11:17\",\"updated_at\":\"2023-08-13 15:27:35\"},{\"id\":3,\"content\":\"New test notification 707\",\"category\":\"social\",\"read_at\":null,\"canceled_at\":null,\"created_at\":\"2023-08-13 17:12:32\",\"updated_at\":\"2023-08-13 17:12:32\"},{\"id\":4,\"content\":\"New test notification 30\",\"category\":\"social\",\"read_at\":null,\"canceled_at\":null,\"created_at\":\"2023-08-13 17:18:50\",\"updated_at\":\"2023-08-13 17:18:50\"},{\"id\":5,\"content\":\"New test notification 53\",\"category\":\"social\",\"read_at\":null,\"canceled_at\":null,\"created_at\":\"2023-08-13 17:21:26\",\"updated_at\":\"2023-08-13 17:21:26\"},{\"id\":6,\"content\":\"New test notification 289\",\"category\":\"social\",\"read_at\":null,\"canceled_at\":null,\"created_at\":\"2023-08-13 17:24:25\",\"updated_at\":\"2023-08-13 17:24:25\"},{\"id\":7,\"content\":\"New test notification 223\",\"category\":\"social\",\"read_at\":null,\"canceled_at\":null,\"created_at\":\"2023-08-13 17:26:09\",\"updated_at\":\"2023-08-13 17:26:09\"},{\"id\":8,\"content\":\"New test notification 43\",\"category\":\"social\",\"read_at\":null,\"canceled_at\":null,\"created_at\":\"2023-08-13 17:26:26\",\"updated_at\":\"2023-08-13 17:26:26\"},{\"id\":9,\"content\":\"New test notification 148\",\"category\":\"social\",\"read_at\":null,\"canceled_at\":null,\"created_at\":\"2023-08-13 17:26:56\",\"updated_at\":\"2023-08-13 17:26:56\"},{\"id\":10,\"content\":\"New test notification 671\",\"category\":\"social\",\"read_at\":null,\"canceled_at\":null,\"created_at\":\"2023-08-13 17:27:03\",\"updated_at\":\"2023-08-13 17:27:03\"}],\"current_page\":1,\"last_page\":2,\"per_page\":10,\"from\":1,\"to\":10,\"total\":11,\"path\":\"http:\\\/\\\/localhost\\\/api\\\/notification\",\"first_page_url\":\"http:\\\/\\\/localhost\\\/api\\\/notification?page_size=10&page=1\",\"prev_page_url\":null,\"next_page_url\":\"http:\\\/\\\/localhost\\\/api\\\/notification?page_size=10&page=2\",\"last_page_url\":\"http:\\\/\\\/localhost\\\/api\\\/notification?page_size=10&page=2\"}",
                            "name": ""
                        }
                    ]
                },
                {
                    "name": "Get a single notification",
                    "request": {
                        "url": {
                            "host": "{{baseUrl}}",
                            "path": "api\/notification\/:id",
                            "query": [],
                            "raw": "{{baseUrl}}\/api\/notification\/:id",
                            "variable": [
                                {
                                    "id": "id",
                                    "key": "id",
                                    "value": "1",
                                    "description": "The ID of the notification."
                                }
                            ]
                        },
                        "method": "GET",
                        "header": [
                            {
                                "key": "Content-Type",
                                "value": "application\/json"
                            },
                            {
                                "key": "Accept",
                                "value": "application\/json"
                            }
                        ],
                        "body": null,
                        "description": "This endpoint is used to return a single notification from the database.",
                        "auth": {
                            "type": "noauth"
                        }
                    },
                    "response": [
                        {
                            "header": [
                                {
                                    "key": "cache-control",
                                    "value": "no-cache, private"
                                },
                                {
                                    "key": "content-type",
                                    "value": "application\/json"
                                },
                                {
                                    "key": "x-ratelimit-limit",
                                    "value": "60"
                                },
                                {
                                    "key": "x-ratelimit-remaining",
                                    "value": "54"
                                },
                                {
                                    "key": "access-control-allow-origin",
                                    "value": "*"
                                }
                            ],
                            "code": 200,
                            "body": "{\"notification\":{\"id\":1,\"content\":\"New test notification 73\",\"category\":\"social\",\"read_at\":\"2023-08-13 15:22:47\",\"canceled_at\":\"2023-08-13 15:18:04\",\"created_at\":\"2023-08-13 17:09:53\",\"updated_at\":\"2023-08-13 15:22:47\"}}",
                            "name": ""
                        }
                    ]
                },
                {
                    "name": "Cancel a notification",
                    "request": {
                        "url": {
                            "host": "{{baseUrl}}",
                            "path": "api\/notification\/:id\/cancel",
                            "query": [],
                            "raw": "{{baseUrl}}\/api\/notification\/:id\/cancel",
                            "variable": [
                                {
                                    "id": "id",
                                    "key": "id",
                                    "value": "1",
                                    "description": "The ID of the notification."
                                }
                            ]
                        },
                        "method": "PATCH",
                        "header": [
                            {
                                "key": "Content-Type",
                                "value": "application\/json"
                            },
                            {
                                "key": "Accept",
                                "value": "application\/json"
                            }
                        ],
                        "body": null,
                        "description": "This endpoint is used to cancel a single notification.",
                        "auth": {
                            "type": "noauth"
                        }
                    },
                    "response": []
                },
                {
                    "name": "Get notifications of a recipient",
                    "request": {
                        "url": {
                            "host": "{{baseUrl}}",
                            "path": "api\/notification\/recipient\/:recipientId",
                            "query": [],
                            "raw": "{{baseUrl}}\/api\/notification\/recipient\/:recipientId",
                            "variable": [
                                {
                                    "id": "recipientId",
                                    "key": "recipientId",
                                    "value": "03",
                                    "description": ""
                                }
                            ]
                        },
                        "method": "GET",
                        "header": [
                            {
                                "key": "Content-Type",
                                "value": "application\/json"
                            },
                            {
                                "key": "Accept",
                                "value": "application\/json"
                            }
                        ],
                        "body": null,
                        "description": "This endpoint is used to return a list of notifications related to a specific recipient.",
                        "auth": {
                            "type": "noauth"
                        }
                    },
                    "response": [
                        {
                            "header": [
                                {
                                    "key": "cache-control",
                                    "value": "no-cache, private"
                                },
                                {
                                    "key": "content-type",
                                    "value": "application\/json"
                                },
                                {
                                    "key": "x-ratelimit-limit",
                                    "value": "60"
                                },
                                {
                                    "key": "x-ratelimit-remaining",
                                    "value": "53"
                                },
                                {
                                    "key": "access-control-allow-origin",
                                    "value": "*"
                                }
                            ],
                            "code": 200,
                            "body": "{\"notifications\":[]}",
                            "name": ""
                        }
                    ]
                },
                {
                    "name": "Count notifications of recipient",
                    "request": {
                        "url": {
                            "host": "{{baseUrl}}",
                            "path": "api\/notification\/recipient\/:recipientId\/count",
                            "query": [],
                            "raw": "{{baseUrl}}\/api\/notification\/recipient\/:recipientId\/count",
                            "variable": [
                                {
                                    "id": "recipientId",
                                    "key": "recipientId",
                                    "value": "34",
                                    "description": ""
                                }
                            ]
                        },
                        "method": "GET",
                        "header": [
                            {
                                "key": "Content-Type",
                                "value": "application\/json"
                            },
                            {
                                "key": "Accept",
                                "value": "application\/json"
                            }
                        ],
                        "body": null,
                        "description": "This endpoint is used to return a count of notifications related to a specific recipient.",
                        "auth": {
                            "type": "noauth"
                        }
                    },
                    "response": [
                        {
                            "header": [
                                {
                                    "key": "cache-control",
                                    "value": "no-cache, private"
                                },
                                {
                                    "key": "content-type",
                                    "value": "application\/json"
                                },
                                {
                                    "key": "x-ratelimit-limit",
                                    "value": "60"
                                },
                                {
                                    "key": "x-ratelimit-remaining",
                                    "value": "52"
                                },
                                {
                                    "key": "access-control-allow-origin",
                                    "value": "*"
                                }
                            ],
                            "code": 200,
                            "body": "{\"notifications_count\":0}",
                            "name": ""
                        }
                    ]
                }
            ]
        }
    ],
    "auth": {
        "type": "noauth"
    }
}