name: Notifications
description: |-

  Endpoints for managing notifications
endpoints:
  -
    httpMethods:
      - POST
    uri: api/notification
    metadata:
      groupName: Notifications
      groupDescription: |-

        Endpoints for managing notifications
      subgroup: ''
      subgroupDescription: ''
      title: 'Send a notification'
      description: 'This endpoint is used to send a notification to a specific recipient.'
      authenticated: false
      custom: []
    headers:
      Content-Type: application/json
      Accept: application/json
    urlParameters: []
    cleanUrlParameters: []
    queryParameters: []
    cleanQueryParameters: []
    bodyParameters:
      recipient_id:
        name: recipient_id
        description: ''
        required: true
        example: 14
        type: integer
        custom: []
      content:
        name: content
        description: 'Must be at least 3 characters.'
        required: true
        example: xmadotbojxoaubsvaakvwnvodxvphyjvmkfdhakraparbofsiwtgbrfextzkwiqtqmwwfxecn
        type: string
        custom: []
      category:
        name: category
        description: 'Must be one of <code>social</code> or <code>professional</code>.'
        required: true
        example: professional
        type: string
        custom: []
    cleanBodyParameters:
      recipient_id: 14
      content: xmadotbojxoaubsvaakvwnvodxvphyjvmkfdhakraparbofsiwtgbrfextzkwiqtqmwwfxecn
      category: professional
    fileParameters: []
    responses:
      -
        status: 200
        content: |-
          {
            "message": "Notification sent with success.",
            "notification": {
              "id": 5,
              "recipient_id": 111,
              "content": "New test notification 98",
              "category": "social",
              "read_at": null,
              "canceled_at": null,
              "created_at": "2023-08-15 11:59:26",
              "updated_at": "2023-08-15 11:59:26"
            }
          }
        headers: []
        description: success
        custom: []
    responseFields: []
    auth: []
    controller: null
    method: null
    route: null
    custom: []
  -
    httpMethods:
      - GET
    uri: api/notification
    metadata:
      groupName: Notifications
      groupDescription: |-

        Endpoints for managing notifications
      subgroup: ''
      subgroupDescription: ''
      title: 'Get all notifications'
      description: 'This endpoint is used to return a paginated list of notifications from the database.'
      authenticated: false
      custom: []
    headers:
      Content-Type: application/json
      Accept: application/json
    urlParameters: []
    cleanUrlParameters: []
    queryParameters:
      page:
        name: page
        description: 'The page number of pagination.'
        required: false
        example: 1
        type: integer
        custom: []
      page_size:
        name: page_size
        description: 'The quantity of items (page size) of pagination. Must be between 1 and 100.'
        required: false
        example: 10
        type: integer
        custom: []
    cleanQueryParameters:
      page: 1
      page_size: 10
    bodyParameters: []
    cleanBodyParameters: []
    fileParameters: []
    responses:
      -
        status: 200
        content: '{"data":[{"id":1,"recipient_id":637,"content":"New test notification 73","category":"social","read_at":"2023-08-13 15:22:47","canceled_at":"2023-08-15 11:46:13","created_at":"2023-08-13 17:09:53","updated_at":"2023-08-15 11:46:13"},{"id":2,"recipient_id":810,"content":"New test notification 418","category":"social","read_at":null,"canceled_at":"2023-08-13 18:02:33","created_at":"2023-08-13 17:11:17","updated_at":"2023-08-13 15:27:35"},{"id":3,"recipient_id":937,"content":"New test notification 707","category":"social","read_at":null,"canceled_at":null,"created_at":"2023-08-13 17:12:32","updated_at":"2023-08-13 17:12:32"},{"id":4,"recipient_id":686,"content":"New test notification 30","category":"social","read_at":null,"canceled_at":null,"created_at":"2023-08-13 17:18:50","updated_at":"2023-08-13 17:18:50"},{"id":5,"recipient_id":761,"content":"New test notification 53","category":"social","read_at":null,"canceled_at":null,"created_at":"2023-08-13 17:21:26","updated_at":"2023-08-13 17:21:26"},{"id":6,"recipient_id":460,"content":"New test notification 289","category":"social","read_at":null,"canceled_at":null,"created_at":"2023-08-13 17:24:25","updated_at":"2023-08-13 17:24:25"},{"id":7,"recipient_id":507,"content":"New test notification 223","category":"social","read_at":null,"canceled_at":null,"created_at":"2023-08-13 17:26:09","updated_at":"2023-08-13 17:26:09"},{"id":8,"recipient_id":720,"content":"New test notification 43","category":"social","read_at":null,"canceled_at":null,"created_at":"2023-08-13 17:26:26","updated_at":"2023-08-13 17:26:26"},{"id":9,"recipient_id":727,"content":"New test notification 148","category":"social","read_at":null,"canceled_at":null,"created_at":"2023-08-13 17:26:56","updated_at":"2023-08-13 17:26:56"},{"id":10,"recipient_id":541,"content":"New test notification 671","category":"social","read_at":null,"canceled_at":null,"created_at":"2023-08-13 17:27:03","updated_at":"2023-08-13 17:27:03"}],"current_page":1,"last_page":2,"per_page":10,"from":1,"to":10,"total":12,"path":"http:\/\/localhost:9999\/api\/notification","first_page_url":"http:\/\/localhost:9999\/api\/notification?page_size=10&page=1","prev_page_url":null,"next_page_url":"http:\/\/localhost:9999\/api\/notification?page_size=10&page=2","last_page_url":"http:\/\/localhost:9999\/api\/notification?page_size=10&page=2"}'
        headers:
          cache-control: 'no-cache, private'
          content-type: application/json
          x-ratelimit-limit: '60'
          x-ratelimit-remaining: '59'
          access-control-allow-origin: '*'
        description: null
        custom: []
    responseFields: []
    auth: []
    controller: null
    method: null
    route: null
    custom: []
  -
    httpMethods:
      - GET
    uri: 'api/notification/{id}'
    metadata:
      groupName: Notifications
      groupDescription: |-

        Endpoints for managing notifications
      subgroup: ''
      subgroupDescription: ''
      title: 'Get a single notification'
      description: 'This endpoint is used to return a single notification from the database.'
      authenticated: false
      custom: []
    headers:
      Content-Type: application/json
      Accept: application/json
    urlParameters:
      id:
        name: id
        description: 'The ID of the notification.'
        required: true
        example: 1
        type: integer
        custom: []
    cleanUrlParameters:
      id: 1
    queryParameters: []
    cleanQueryParameters: []
    bodyParameters: []
    cleanBodyParameters: []
    fileParameters: []
    responses:
      -
        status: 200
        content: |-
          {
            "notification": {
              "id": 6,
              "recipient_id": 2,
              "content": "New test notification 289",
              "category": "social",
              "read_at": null,
              "canceled_at": null,
              "created_at": "2023-08-13 17:24:25",
              "updated_at": "2023-08-13 17:24:25"
            }
          }
        headers: []
        description: success
        custom: []
      -
        status: 404
        content: |-
          {
            "message": "The notification could not be found.",
            "data": {
                "id": 99999
            }
          }
        headers: []
        description: 'notification not found'
        custom: []
    responseFields: []
    auth: []
    controller: null
    method: null
    route: null
    custom: []
  -
    httpMethods:
      - PATCH
    uri: 'api/notification/{id}/cancel'
    metadata:
      groupName: Notifications
      groupDescription: |-

        Endpoints for managing notifications
      subgroup: ''
      subgroupDescription: ''
      title: 'Cancel a notification'
      description: 'This endpoint is used to cancel a single notification.'
      authenticated: false
      custom: []
    headers:
      Content-Type: application/json
      Accept: application/json
    urlParameters:
      id:
        name: id
        description: 'The ID of the notification.'
        required: true
        example: 1
        type: integer
        custom: []
    cleanUrlParameters:
      id: 1
    queryParameters: []
    cleanQueryParameters: []
    bodyParameters: []
    cleanBodyParameters: []
    fileParameters: []
    responses:
      -
        status: 200
        content: |-
          {
            "message": "Notification canceled with success.",
            "notification": {
              "id": 1,
              "recipient_id": 43,
              "content": "New test notification 73",
              "category": "professional",
              "read_at": null,
              "canceled_at": "2023-08-15 11:46:13",
              "created_at": "2023-08-13 17:09:53",
              "updated_at": "2023-08-15 11:46:13"
            }
          }
        headers: []
        description: success
        custom: []
      -
        status: 404
        content: |-
          {
            "message": "The notification could not be found.",
            "data": {
                "id": 99999
            }
          }
        headers: []
        description: 'notification not found'
        custom: []
    responseFields: []
    auth: []
    controller: null
    method: null
    route: null
    custom: []
  -
    httpMethods:
      - PATCH
    uri: 'api/notification/{id}/read'
    metadata:
      groupName: Notifications
      groupDescription: |-

        Endpoints for managing notifications
      subgroup: ''
      subgroupDescription: ''
      title: 'Read a notification'
      description: 'This endpoint is used to mark a single notification as READ.'
      authenticated: false
      custom: []
    headers:
      Content-Type: application/json
      Accept: application/json
    urlParameters:
      id:
        name: id
        description: 'The ID of the notification.'
        required: true
        example: 1
        type: integer
        custom: []
    cleanUrlParameters:
      id: 1
    queryParameters: []
    cleanQueryParameters: []
    bodyParameters: []
    cleanBodyParameters: []
    fileParameters: []
    responses:
      -
        status: 200
        content: |-
          {
            "message": "Notification marked as read with success.",
            "notification": {
              "id": 1,
              "recipient_id": 257,
              "content": "New test notification 12",
              "category": "professional",
              "read_at": "2023-08-15 11:46:13",
              "canceled_at": null,
              "created_at": "2023-08-13 17:09:53",
              "updated_at": "2023-08-15 11:46:13"
            }
          }
        headers: []
        description: success
        custom: []
      -
        status: 404
        content: |-
          {
            "message": "The notification could not be found.",
            "data": {
                "id": 99999
            }
          }
        headers: []
        description: 'notification not found'
        custom: []
    responseFields: []
    auth: []
    controller: null
    method: null
    route: null
    custom: []
  -
    httpMethods:
      - PATCH
    uri: 'api/notification/{id}/unread'
    metadata:
      groupName: Notifications
      groupDescription: |-

        Endpoints for managing notifications
      subgroup: ''
      subgroupDescription: ''
      title: 'Unread a notification'
      description: 'This endpoint is used to mark a single notification as UNREAD.'
      authenticated: false
      custom: []
    headers:
      Content-Type: application/json
      Accept: application/json
    urlParameters:
      id:
        name: id
        description: 'The ID of the notification.'
        required: true
        example: 1
        type: integer
        custom: []
    cleanUrlParameters:
      id: 1
    queryParameters: []
    cleanQueryParameters: []
    bodyParameters: []
    cleanBodyParameters: []
    fileParameters: []
    responses:
      -
        status: 200
        content: |-
          {
            "message": "Notification marked as unread with success.",
            "notification": {
              "id": 1,
              "recipient_id": 510,
              "content": "New test notification 12",
              "category": "professional",
              "read_at": "2023-08-15 11:46:13",
              "canceled_at": null,
              "created_at": "2023-08-13 17:09:53",
              "updated_at": "2023-08-15 11:46:13"
            }
          }
        headers: []
        description: success
        custom: []
      -
        status: 404
        content: |-
          {
            "message": "The notification could not be found.",
            "data": {
                "id": 99999
            }
          }
        headers: []
        description: 'notification not found'
        custom: []
    responseFields: []
    auth: []
    controller: null
    method: null
    route: null
    custom: []
  -
    httpMethods:
      - GET
    uri: 'api/notification/recipient/{recipientId}'
    metadata:
      groupName: Notifications
      groupDescription: |-

        Endpoints for managing notifications
      subgroup: ''
      subgroupDescription: ''
      title: 'Get notifications of recipient'
      description: 'This endpoint is used to return a list of notifications related to a specific recipient.'
      authenticated: false
      custom: []
    headers:
      Content-Type: application/json
      Accept: application/json
    urlParameters:
      recipientId:
        name: recipientId
        description: ''
        required: true
        example: '074'
        type: string
        custom: []
    cleanUrlParameters:
      recipientId: '074'
    queryParameters: []
    cleanQueryParameters: []
    bodyParameters: []
    cleanBodyParameters: []
    fileParameters: []
    responses:
      -
        status: 200
        content: |-
          {
             "notifications": [
                 {
                     "id": 1,
                     "recipient_id": 637,
                     "content": "New test notification 73",
                     "category": "social",
                     "read_at": null,
                     "canceled_at": null,
                     "created_at": "2023-08-13 17:09:53",
                     "updated_at": "2023-08-15 11:46:13"
                 },
                 {
                     "id": 2,
                     "recipient_id": 637,
                     "content": "New test notification 55",
                     "category": "professional",
                     "read_at": null,
                     "canceled_at": null,
                     "created_at": "2023-08-13 17:09:53",
                     "updated_at": "2023-08-15 11:46:13"
                 }
             ]
          }
        headers: []
        description: success
        custom: []
    responseFields: []
    auth: []
    controller: null
    method: null
    route: null
    custom: []
  -
    httpMethods:
      - GET
    uri: 'api/notification/recipient/{recipientId}/count'
    metadata:
      groupName: Notifications
      groupDescription: |-

        Endpoints for managing notifications
      subgroup: ''
      subgroupDescription: ''
      title: 'Count notifications of recipient'
      description: 'This endpoint is used to return a counter of notifications related to a specific recipient.'
      authenticated: false
      custom: []
    headers:
      Content-Type: application/json
      Accept: application/json
    urlParameters:
      recipientId:
        name: recipientId
        description: ''
        required: true
        example: '16'
        type: string
        custom: []
    cleanUrlParameters:
      recipientId: '16'
    queryParameters: []
    cleanQueryParameters: []
    bodyParameters: []
    cleanBodyParameters: []
    fileParameters: []
    responses:
      -
        status: 200
        content: |-
          {
            "notifications_count": 12
          }
        headers: []
        description: success
        custom: []
    responseFields: []
    auth: []
    controller: null
    method: null
    route: null
    custom: []
