## Autogenerated by Scribe. DO NOT MODIFY.

name: Notifications
description: |-

  Endpoints for managing notifications
endpoints:
  -
    httpMethods:
      - POST
    uri: api/notification
    metadata:
      groupName: Notifications
      groupDescription: |-

        Endpoints for managing notifications
      subgroup: ''
      subgroupDescription: ''
      title: 'Send a notification'
      description: 'This endpoint is used to send a notification to a specific recipient.'
      authenticated: false
      custom: []
    headers:
      Content-Type: application/json
      Accept: application/json
    urlParameters: []
    cleanUrlParameters: []
    queryParameters: []
    cleanQueryParameters: []
    bodyParameters:
      recipient_id:
        name: recipient_id
        description: ''
        required: true
        example: 12
        type: integer
        custom: []
      content:
        name: content
        description: 'Must be at least 3 characters.'
        required: true
        example: mknrxrpgwagkafyyqprsymp
        type: string
        custom: []
      category:
        name: category
        description: 'Must be one of <code>social</code> or <code>professional</code>.'
        required: true
        example: professional
        type: string
        custom: []
    cleanBodyParameters:
      recipient_id: 12
      content: mknrxrpgwagkafyyqprsymp
      category: professional
    fileParameters: []
    responses: []
    responseFields: []
    auth: []
    controller: null
    method: null
    route: null
    custom: []
  -
    httpMethods:
      - GET
    uri: api/notification
    metadata:
      groupName: Notifications
      groupDescription: |-

        Endpoints for managing notifications
      subgroup: ''
      subgroupDescription: ''
      title: 'Get all notifications'
      description: 'This endpoint is used to return a paginated list of notifications from the database.'
      authenticated: false
      custom: []
    headers:
      Content-Type: application/json
      Accept: application/json
    urlParameters: []
    cleanUrlParameters: []
    queryParameters:
      page:
        name: page
        description: 'The page number of pagination.'
        required: false
        example: 2
        type: integer
        custom: []
      page_size:
        name: page_size
        description: 'The quantity of items (page size) of pagination. Must be between 1 and 100.'
        required: false
        example: 10
        type: integer
        custom: []
    cleanQueryParameters:
      page: 2
      page_size: 10
    bodyParameters: []
    cleanBodyParameters: []
    fileParameters: []
    responses:
      -
        status: 200
        content: '{"data":[{"id":11,"content":"New test notification 513","category":"social","read_at":null,"canceled_at":null,"created_at":"2023-08-13 17:35:34","updated_at":"2023-08-13 17:35:34"}],"current_page":2,"last_page":2,"per_page":10,"from":11,"to":11,"total":11,"path":"http:\/\/localhost\/api\/notification","first_page_url":"http:\/\/localhost\/api\/notification?page_size=10&page=1","prev_page_url":"http:\/\/localhost\/api\/notification?page_size=10&page=1","next_page_url":null,"last_page_url":"http:\/\/localhost\/api\/notification?page_size=10&page=2"}'
        headers:
          cache-control: 'no-cache, private'
          content-type: application/json
          x-ratelimit-limit: '60'
          x-ratelimit-remaining: '59'
          access-control-allow-origin: '*'
        description: null
        custom: []
    responseFields: []
    auth: []
    controller: null
    method: null
    route: null
    custom: []
  -
    httpMethods:
      - GET
    uri: 'api/notification/{id}'
    metadata:
      groupName: Notifications
      groupDescription: |-

        Endpoints for managing notifications
      subgroup: ''
      subgroupDescription: ''
      title: 'Get a single notification'
      description: 'This endpoint is used to return a single notification from the database.'
      authenticated: false
      custom: []
    headers:
      Content-Type: application/json
      Accept: application/json
    urlParameters:
      id:
        name: id
        description: 'The ID of the notification.'
        required: true
        example: 1
        type: integer
        custom: []
    cleanUrlParameters:
      id: 1
    queryParameters: []
    cleanQueryParameters: []
    bodyParameters: []
    cleanBodyParameters: []
    fileParameters: []
    responses:
      -
        status: 200
        content: '{"notification":{"id":1,"content":"New test notification 73","category":"social","read_at":"2023-08-13 15:22:47","canceled_at":"2023-08-13 15:18:04","created_at":"2023-08-13 17:09:53","updated_at":"2023-08-13 15:22:47"}}'
        headers:
          cache-control: 'no-cache, private'
          content-type: application/json
          x-ratelimit-limit: '60'
          x-ratelimit-remaining: '58'
          access-control-allow-origin: '*'
        description: null
        custom: []
    responseFields: []
    auth: []
    controller: null
    method: null
    route: null
    custom: []
  -
    httpMethods:
      - PATCH
    uri: 'api/notification/{id}/cancel'
    metadata:
      groupName: Notifications
      groupDescription: |-

        Endpoints for managing notifications
      subgroup: ''
      subgroupDescription: ''
      title: 'Cancel a notification'
      description: 'This endpoint is used to cancel a single notification.'
      authenticated: false
      custom: []
    headers:
      Content-Type: application/json
      Accept: application/json
    urlParameters:
      id:
        name: id
        description: 'The ID of the notification.'
        required: true
        example: 1
        type: integer
        custom: []
    cleanUrlParameters:
      id: 1
    queryParameters: []
    cleanQueryParameters: []
    bodyParameters: []
    cleanBodyParameters: []
    fileParameters: []
    responses: []
    responseFields: []
    auth: []
    controller: null
    method: null
    route: null
    custom: []
  -
    httpMethods:
      - PATCH
    uri: 'api/notification/{id}/read'
    metadata:
      groupName: Notifications
      groupDescription: |-

        Endpoints for managing notifications
      subgroup: ''
      subgroupDescription: ''
      title: 'Read a notification'
      description: 'This endpoint is used to mark a single notification as READ.'
      authenticated: false
      custom: []
    headers:
      Content-Type: application/json
      Accept: application/json
    urlParameters:
      id:
        name: id
        description: 'The ID of the notification.'
        required: true
        example: 1
        type: integer
        custom: []
    cleanUrlParameters:
      id: 1
    queryParameters: []
    cleanQueryParameters: []
    bodyParameters: []
    cleanBodyParameters: []
    fileParameters: []
    responses: []
    responseFields: []
    auth: []
    controller: null
    method: null
    route: null
    custom: []
  -
    httpMethods:
      - PATCH
    uri: 'api/notification/{id}/unread'
    metadata:
      groupName: Notifications
      groupDescription: |-

        Endpoints for managing notifications
      subgroup: ''
      subgroupDescription: ''
      title: 'Unread a notification'
      description: 'This endpoint is used to mark a single notification as UNREAD.'
      authenticated: false
      custom: []
    headers:
      Content-Type: application/json
      Accept: application/json
    urlParameters:
      id:
        name: id
        description: 'The ID of the notification.'
        required: true
        example: 1
        type: integer
        custom: []
    cleanUrlParameters:
      id: 1
    queryParameters: []
    cleanQueryParameters: []
    bodyParameters: []
    cleanBodyParameters: []
    fileParameters: []
    responses: []
    responseFields: []
    auth: []
    controller: null
    method: null
    route: null
    custom: []
  -
    httpMethods:
      - GET
    uri: 'api/notification/recipient/{recipientId}'
    metadata:
      groupName: Notifications
      groupDescription: |-

        Endpoints for managing notifications
      subgroup: ''
      subgroupDescription: ''
      title: 'Get notifications of recipient'
      description: 'This endpoint is used to return a list of notifications related to a specific recipient.'
      authenticated: false
      custom: []
    headers:
      Content-Type: application/json
      Accept: application/json
    urlParameters:
      recipientId:
        name: recipientId
        description: ''
        required: true
        example: '149'
        type: string
        custom: []
    cleanUrlParameters:
      recipientId: '149'
    queryParameters: []
    cleanQueryParameters: []
    bodyParameters: []
    cleanBodyParameters: []
    fileParameters: []
    responses:
      -
        status: 200
        content: '{"notifications":[]}'
        headers:
          cache-control: 'no-cache, private'
          content-type: application/json
          x-ratelimit-limit: '60'
          x-ratelimit-remaining: '57'
          access-control-allow-origin: '*'
        description: null
        custom: []
    responseFields: []
    auth: []
    controller: null
    method: null
    route: null
    custom: []
  -
    httpMethods:
      - GET
    uri: 'api/notification/recipient/{recipientId}/count'
    metadata:
      groupName: Notifications
      groupDescription: |-

        Endpoints for managing notifications
      subgroup: ''
      subgroupDescription: ''
      title: 'Count notifications of recipient'
      description: 'This endpoint is used to return a count of notifications related to a specific recipient.'
      authenticated: false
      custom: []
    headers:
      Content-Type: application/json
      Accept: application/json
    urlParameters:
      recipientId:
        name: recipientId
        description: ''
        required: true
        example: '768839'
        type: string
        custom: []
    cleanUrlParameters:
      recipientId: '768839'
    queryParameters: []
    cleanQueryParameters: []
    bodyParameters: []
    cleanBodyParameters: []
    fileParameters: []
    responses:
      -
        status: 200
        content: '{"notifications_count":0}'
        headers:
          cache-control: 'no-cache, private'
          content-type: application/json
          x-ratelimit-limit: '60'
          x-ratelimit-remaining: '56'
          access-control-allow-origin: '*'
        description: null
        custom: []
    responseFields: []
    auth: []
    controller: null
    method: null
    route: null
    custom: []
